PROJECT
…
## # A tibble: 3 x 2
##     NUM count
##   <chr> <int>
## 1 SG/PL   154
## 2    PL   142
## 3    SG   104

#Table 2.
bp %>%
  group_by(CLASS) %>%
  summarise(count=n()) %>%
  arrange(desc(count))

## # A tibble: 49 x 2
##         CLASS count
##         <chr> <int>
##  1      TOUCH    49
##  2      IDIOM    47
##  3      MOVEM    31
##  4       BEAT    25
##  5      SENSE    21
##  6      CARRY    15
##  7      DRESS    14
##  8 DRESS DOWN    11
##  9       WRAP    11
## 10       DOWN    10
## # ... with 39 more rows
…
#Table 4.
bp %>%
  group_by(CLUSTER, CLASS, NUM) %>%
  summarise(count=n()) %>%
  arrange(NUM, desc(count))

## # A tibble: 91 x 4
## # Groups:   CLUSTER, CLASS [49]
##    CLUSTER CLASS   NUM count
##      <chr> <chr> <chr> <int>
##  1   IDIOM IDIOM    PL    36
##  2   MOVEM MOVEM    PL    12
##  3   MOVEM  DOWN    PL     9
##  4   SENSE  BEAT    PL     8
##  5   MOVEM SHAKE    PL     6
##  6   MOVEM    UP    PL     6
##  7   SENSE SENSE    PL     6
##  8   SENSE TOUCH    PL     6
##  9   PLACE CARRY    PL     5
## 10   PLACE   LAY    PL     5
## # ... with 81 more rows
…
#Table 6.
bp %>%
  group_by(CLUSTER, ZONE, NUM) %>%
  summarise(count=n()) %>%
  arrange(NUM, desc(count))

## # A tibble: 21 x 4
## # Groups:   CLUSTER, ZONE [10]
##    CLUSTER       ZONE   NUM count
##      <chr>      <chr> <chr> <int>
##  1   MOVEM UPPER LIMB    PL    38
##  2   IDIOM UPPER LIMB    PL    29
##  3   SENSE UPPER LIMB    PL    18
##  4   MOVEM LOWER LIMB    PL    17
##  5   PLACE LOWER LIMB    PL    12
##  6   PLACE UPPER LIMB    PL     9
##  7   OTHER UPPER LIMB    PL     8
##  8   IDIOM LOWER LIMB    PL     7
##  9   SENSE LOWER LIMB    PL     3
## 10   OTHER LOWER LIMB    PL     1
## # ... with 11 more rows
…
